%YAML 1.1
%TAG !u! tag:unity3d.com,2011:
--- !u!1045 &1
EditorBuildSettings:
  m_ObjectHideFlags: 0
  serializedVersion: 2
  m_Scenes:
  - enabled: 1
    path: Assets/Scenes/test grid.unity
    guid: 0edee75319a03c3418d71b0f2eab5641
  m_configObjects:
    com.unity.input.settings: {fileID: 11400000, guid: fcf9e8faa24190948b8b9ada648f113d,
      type: 2}
